[Logs]
[22:52:30:86] : Connection status : OK
[22:52:43:23] : Sent message -> Z
[22:52:46:24] : Sent message -> X
[22:52:47:59] : Sent message -> C
[22:53:14:36] : Sent message -> Z
[22:53:14:86] : Sent message -> X
[22:53:15:28] : Sent message -> C
